1
tomi
tomi@tm.com
2314214
tommmmm
persona
------
Persona:2
pepe
peeee@pee
2143124
eacasda
persona
------
Persona:3
Tomas
tomasmasiero@hotmail.com
2615399099
soy tomas
prueba3
------
Persona:4
ro
ro@rooooo.ro
1232132138
rooooo
prueba3
------
Persona:5
pepe
pep@pepe.com
21321321
pepep
prueba3
------
Persona:6
prueba
prueba@prueba.com
21321
test
prueba3